-150,50,200,250000,0,190,0,
-150,50,350,90000,0,90,0,
-150,50,420,90000,0,90,0,
-150,50,432,50000,0,50,250,
-150,50,350,90000,0,90,0,
-150,50,200,250000,1,190,0,
150,50,200,250000,1,90,0,
150,50,350,90000,0,90,0,
150,50,490,90000,1,90,0,
150,50,510,50000,1,50,250,
150,50,350,90000,0,90,0,
150,50,200,100000,0,190,0,
-150,50,200,250000,0,90,0,
-150,50,380,90000,0,90,0,
-150,50,452,90000,0,90,0,
-150,50,472,50000,0,50,250,
-150,50,200,250000,1,190,0,
150,50,200,250000,1,90,0,
150,50,370,90000,0,90,0,
150,50,460,90000,1,90,0,
150,50,475,50000,1,50,250,
150,50,200,250000,0,190,0,
-150,50,200,250000,0,90,0,
-150,50,390,90000,0,90,0,
-150,50,493,90000,0,90,0,
-150,50,503,50000,0,50,250,
-150,50,200,250000,1,190,0,
150,50,200,250000,1,90,0,
150,50,350,90000,0,90,0,
150,50,428,90000,1,90,0,
150,50,438,50000,1,50,250,
150,50,200,250000,0,190,1000,
150,50,350,90000,0,90,0,
150,50,428,90000,0,90,0,
150,50,438,50000,0,50,250,
150,50,200,250000,1,190,0,
-150,50,200,250000,1,90,0,
-150,50,350,90000,0,90,0,
-150,50,490,90000,1,90,0,
-150,50,503,50000,0,50,250,
-150,50,200,250000,0,190,0,
150,50,200,250000,0,90,0,
150,50,350,90000,0,90,0,
150,50,460,90000,0,90,0,
150,50,475,50000,1,50,250,
150,50,200,250000,1,190,0,
-150,50,200,250000,1,90,0,
-150,50,350,90000,0,90,0,
-150,50,460,90000,1,90,0,
-150,50,470,50000,0,50,250,
-150,50,200,250000,0,190,0,
150,50,200,250000,0,90,0,
150,50,350,90000,0,90,0,
150,50,490,90000,0,90,0,
150,50,510,50000,1,50,250,
150,50,200,250000,1,190,0,
-150,50,200,250000,1,90,0,
-150,50,350,90000,0,90,0,
-150,50,420,90000,1,90,0,
-150,50,430,50000,0,50,250,
-150,50,200,250000,0,190,0,
